…
## Usage

RSS feeds can be parsed with `tidyfeed()`, and some examples are
included in the “feeds” dataset. Here is an example of using the
package:

``` r
library(tidyRSS)
data("feeds")

# select a feed:
rss <- sample(feeds$feeds, 1)

tidyfeed(rss)
#> # A tibble: 50 x 12
#>    feed_title feed_link feed_description feed_last_updated   feed_language
#>    <chr>      <chr>     <chr>            <dttm>              <chr>        
#>  1 Statistic… https://… ""               2019-09-06 14:23:58 en-US        
#>  2 Statistic… https://… ""               2019-09-06 14:23:58 en-US        
#>  3 Statistic… https://… ""               2019-09-06 14:23:58 en-US        
#>  4 Statistic… https://… ""               2019-09-06 14:23:58 en-US        
#>  5 Statistic… https://… ""               2019-09-06 14:23:58 en-US        
#>  6 Statistic… https://… ""               2019-09-06 14:23:58 en-US        
#>  7 Statistic… https://… ""               2019-09-06 14:23:58 en-US        
#>  8 Statistic… https://… ""               2019-09-06 14:23:58 en-US        
#>  9 Statistic… https://… ""               2019-09-06 14:23:58 en-US        
#> 10 Statistic… https://… ""               2019-09-06 14:23:58 en-US        
#> # … with 40 more rows, and 7 more variables: feed_update_period <chr>,
#> #   item_title <chr>, item_creator <chr>, item_date_published <dttm>,
#> #   item_description <chr>, item_link <chr>, item_categories <list>
```
…
